quartus_prj/Verilog/EP2C20/T6_SRAM/Proj/sram_test1.vcd
$comment
Copyright (C) 1991-2005 Altera Corporation
Your use of Altera Corporation's design tools, logic functions 
and other software and tools, and its AMPP partner logic       
functions, and any output files any of the foregoing           
(including device programming or simulation files), and any    
associated documentation or information are expressly subject  
to the terms and conditions of the Altera Program License      
Subscription Agreement, Altera MegaCore Function License       
Agreement, or other applicable license agreement, including,   
without limitation, that your use is for the sole purpose of   
programming logic devices manufactured by Altera and sold by   
Altera or its authorized distributors.  Please refer to the    
applicable agreement for further details.
$end


$date 
  09/21/2006 01:00:57 
$end

$version 
 QUARTUS_VCD_EXPORT 1.0 
$end

$timescale
  100 ms
$end
$var reg 1 *0 clkin $end
$var reg 1 *1 sram_rd $end
$var reg 1 *2 \sram_ab[17] $end
$var reg 1 *3 \sram_ab[16] $end
$var reg 1 *4 \sram_ab[15] $end
$var reg 1 *5 \sram_ab[14] $end
$var reg 1 *6 \sram_ab[13] $end
$var reg 1 *7 \sram_ab[12] $end
$var reg 1 *8 \sram_ab[11] $end
$var reg 1 *9 \sram_ab[10] $end
$var reg 1 *10 \sram_ab[9] $end
$var reg 1 *11 \sram_ab[8] $end
$var reg 1 *12 \sram_ab[7] $end
$var reg 1 *13 \sram_ab[6] $end
$var reg 1 *14 \sram_ab[5] $end
$var reg 1 *15 \sram_ab[4] $end
$var reg 1 *16 \sram_ab[3] $end
$var reg 1 *17 \sram_ab[2] $end
$var reg 1 *18 \sram_ab[1] $end
$var reg 1 *19 \sram_ab[0] $end
$var reg 1 *20 \sram_db[15] $end
$var reg 1 *21 \sram_db[14] $end
$var reg 1 *22 \sram_db[13] $end
$var reg 1 *23 \sram_db[12] $end
$var reg 1 *24 \sram_db[11] $end
$var reg 1 *25 \sram_db[10] $end
$var reg 1 *26 \sram_db[9] $end
$var reg 1 *27 \sram_db[8] $end
$var reg 1 *28 \sram_db[7] $end
$var reg 1 *29 \sram_db[6] $end
$var reg 1 *30 \sram_db[5] $end
$var reg 1 *31 \sram_db[4] $end
$var reg 1 *32 \sram_db[3] $end
$var reg 1 *33 \sram_db[2] $end
$var reg 1 *34 \sram_db[1] $end
$var reg 1 *35 \sram_db[0] $end
$var reg 1 *36 sram_cs $end
$var reg 1 *37 sram_wr $end
$var reg 1 *38 task_finish $end
$var reg 1 *39 task_start $end

$enddefinitions $end

#0
$dumpvars
0*0
X*1
X*2
X*3
X*4
X*5
X*6
X*7
X*8
X*9
X*10
X*11
X*12
X*13
X*14
X*15
X*16
X*17
X*18
X*19
X*20
X*21
X*22
X*23
X*24
X*25
X*26
X*27
X*28
X*29
X*30
X*31
X*32
X*33
X*34
X*35
X*36
X*37
X*38
X*39
$end
#5
$comment Sample -32 (Start) $end
1*0
0*1
1*2
1*3
1*4
1*5
1*6
1*7
1*8
1*9
1*10
1*11
1*12
1*13
1*14
1*15
1*16
0*17
0*18
0*19
1*20
1*21
1*22
1*23
1*24
1*25
1*26
1*27
1*28
1*29
1*30
1*31
1*32
0*33
0*34
0*35
0*36
1*37
1*38
1*39
#10
0*0
0*1
1*2
1*3
1*4
1*5
1*6
1*7
1*8
1*9
1*10
1*11
1*12
1*13
1*14
1*15
1*16
0*17
0*18
0*19
1*20
1*21
1*22
1*23
1*24
1*25
1*26
1*27
1*28
1*29
1*30
1*31
1*32
0*33
0*34
0*35
0*36
1*37
1*38
1*39
#15
1*0
0*1
1*2
1*3
1*4
1*5
1*6
1*7
1*8
1*9
1*10
1*11
1*12
1*13
1*14
1*15
1*16
0*17
0*18
1*19
1*20
1*21
1*22
1*23
1*24
1*25
1*26
1*27
1*28
1*29
1*30
1*31
1*32
0*33
0*34
1*35
0*36
1*37
1*38
1*39
#20
0*0
0*1
1*2
1*3
1*4
1*5
1*6
1*7
1*8
1*9
1*10
1*11
1*12
1*13
1*14
1*15
1*16
0*17
0*18
1*19
1*20
1*21
1*22
1*23
1*24
1*25
1*26
1*27
1*28
1*29
1*30
1*31
1*32
0*33
0*34
1*35
0*36
1*37
1*38
1*39
#25
1*0
0*1
1*2
1*3
1*4
1*5
1*6
1*7
1*8
1*9
1*10
1*11
1*12
1*13
1*14
1*15
1*16
0*17
0*18
1*19
1*20
1*21
1*22
1*23
1*24
1*25
1*26
1*27
1*28
1*29
1*30
1*31
1*32
0*33
0*34
1*35
0*36
1*37
1*38
1*39
#30
0*0
0*1
1*2
1*3
1*4
1*5
1*6
1*7
1*8
1*9
1*10
1*11
1*12
1*13
1*14
1*15
1*16
0*17
0*18
1*19
1*20
1*21
1*22
1*23
1*24
1*25
1*26
1*27
1*28
1*29
1*30
1*31
1*32
0*33
0*34
1*35
0*36
1*37
1*38
1*39
#35
1*0
0*1
1*2
1*3
1*4
1*5
1*6
1*7
1*8
1*9
1*10
1*11
1*12
1*13
1*14
1*15
1*16
0*17
0*18
1*19
1*20
1*21
1*22
1*23
1*24
1*25
1*26
1*27
1*28
1*29
1*30
1*31
1*32
0*33
0*34
1*35
0*36
1*37
1*38
1*39
#40
0*0
0*1
1*2
1*3
1*4
1*5
1*6
1*7
1*8
1*9
1*10
1*11
1*12
1*13
1*14
1*15
1*16
0*17
0*18
1*19
1*20
1*21
1*22
1*23
1*24
1*25
1*26
1*27
1*28
1*29
1*30
1*31
1*32
0*33
0*34
1*35
0*36
1*37
1*38
1*39
#45
1*0
0*1
1*2
1*3
1*4
1*5
1*6
1*7
1*8
1*9
1*10
1*11
1*12
1*13
1*14
1*15
1*16
0*17
0*18
1*19
1*20
1*21
1*22
1*23
1*24
1*25
1*26
1*27
1*28
1*29
1*30
1*31
1*32
0*33
0*34
1*35
0*36
1*37
1*38
1*39
#50
0*0
0*1
1*2
1*3
1*4
1*5
1*6
1*7
1*8
1*9
1*10
1*11
1*12
1*13
1*14
1*15
1*16
0*17
0*18
1*19
1*20
1*21
1*22
1*23
1*24
1*25
1*26
1*27
1*28
1*29
1*30
1*31
1*32
0*33
0*34
1*35
0*36
1*37
1*38
1*39
#55
1*0
0*1
1*2
1*3
1*4
1*5
1*6
1*7
1*8
1*9
1*10
1*11
1*12
1*13
1*14
1*15
1*16
0*17
1*18
0*19
1*20
1*21
1*22
1*23
1*24
1*25
1*26
1*27
1*28
1*29
1*30
1*31
1*32
0*33
1*34
0*35
0*36
1*37
1*38
1*39
#60
0*0
0*1
1*2
1*3
1*4
1*5
1*6
1*7
1*8
1*9
1*10
1*11
1*12
1*13
1*14
1*15
1*16
0*17
1*18
0*19
1*20
1*21
1*22
1*23
1*24
1*25
1*26
1*27
1*28
1*29
1*30
1*31
1*32
0*33
1*34
0*35
0*36
1*37
1*38
1*39
#65
1*0
0*1
1*2
1*3
1*4
1*5
1*6
1*7
1*8
1*9
1*10
1*11
1*12
1*13
1*14
1*15
1*16
0*17
1*18
0*19
1*20
1*21
1*22
1*23
1*24
1*25
1*26
1*27
1*28
1*29
1*30
1*31
1*32
0*33
1*34
0*35
0*36
1*37
1*38
1*39
#70
0*0
0*1
1*2
1*3
1*4
1*5
1*6
1*7
1*8
1*9
1*10
1*11
1*12
1*13
1*14
1*15
1*16
0*17
1*18
0*19
1*20
1*21
1*22
1*23
1*24
1*25
1*26
1*27
1*28
1*29
1*30
1*31
1*32
0*33
1*34
0*35
0*36
1*37
1*38
1*39
#75
1*0
0*1
1*2
1*3
1*4
1*5
1*6
1*7
1*8
1*9
1*10
1*11
1*12
1*13
1*14
1*15
1*16
0*17
1*18
0*19
1*20
1*21
1*22
1*23
1*24
1*25
1*26
1*27
1*28
1*29
1*30
1*31
1*32
0*33
1*34
0*35
0*36
1*37
1*38
1*39
#80
0*0
0*1
1*2
1*3
1*4
1*5
1*6
1*7
1*8
1*9
1*10
1*11
1*12
1*13
1*14
1*15
1*16
0*17
1*18
0*19
1*20
1*21
1*22
1*23
1*24
1*25
1*26
1*27
1*28
1*29
1*30
1*31
1*32
0*33
1*34
0*35
0*36
1*37
1*38
1*39
#85
1*0
0*1
1*2
1*3
1*4
1*5
1*6
1*7
1*8
1*9
1*10
1*11
1*12
1*13
1*14
1*15
1*16
0*17
1*18
0*19
1*20
1*21
1*22
1*23
1*24
1*25
1*26
1*27
1*28
1*29
1*30
1*31
1*32
0*33
1*34
0*35
0*36
1*37
1*38
1*39
#90
0*0
0*1
1*2
1*3
1*4
1*5
1*6
1*7
1*8
1*9
1*10
1*11
1*12
1*13
1*14
1*15
1*16
0*17
1*18
0*19
1*20
1*21
1*22
1*23
1*24
1*25
1*26
1*27
1*28
1*29
1*30
1*31
1*32
0*33
1*34
0*35
0*36
1*37
1*38
1*39
#95
1*0
0*1
1*2
1*3
1*4
1*5
1*6
1*7
1*8
1*9
1*10
1*11
1*12
1*13
1*14
1*15
1*16
0*17
1*18
1*19
1*20
1*21
1*22
1*23
1*24
1*25
1*26
1*27
1*28
1*29
1*30
1*31
1*32
0*33
1*34
1*35
0*36
1*37
1*38
1*39
#100
0*0
0*1
1*2
1*3
1*4
1*5
1*6
1*7
1*8
1*9
1*10
1*11
1*12
1*13
1*14
1*15
1*16
0*17
1*18
1*19
1*20
1*21
1*22
1*23
1*24
1*25
1*26
1*27
1*28
1*29
1*30
1*31
1*32
0*33
1*34
1*35
0*36
1*37
1*38
1*39
#105
1*0
0*1
1*2
1*3
1*4
1*5
1*6
1*7
1*8
1*9
1*10
1*11
1*12
1*13
1*14
1*15
1*16
0*17
1*18
1*19
1*20
1*21
1*22
1*23
1*24
1*25
1*26
1*27
1*28
1*29
1*30
1*31
1*32
0*33
1*34
1*35
0*36
1*37
1*38
1*39
#110
0*0
0*1
1*2
1*3
1*4
1*5
1*6
1*7
1*8
1*9
1*10
1*11
1*12
1*13
1*14
1*15
1*16
0*17
1*18
1*19
1*20
1*21
1*22
1*23
1*24
1*25
1*26
1*27
1*28
1*29
1*30
1*31
1*32
0*33
1*34
1*35
0*36
1*37
1*38
1*39
#115
1*0
0*1
1*2
1*3
1*4
1*5
1*6
1*7
1*8
1*9
1*10
1*11
1*12
1*13
1*14
1*15
1*16
0*17
1*18
1*19
1*20
1*21
1*22
1*23
1*24
1*25
1*26
1*27
1*28
1*29
1*30
1*31
1*32
0*33
1*34
1*35
0*36
1*37
1*38
1*39
#120
0*0
0*1
1*2
1*3
1*4
1*5
1*6
1*7
1*8
1*9
1*10
1*11
1*12
1*13
1*14
1*15
1*16
0*17
1*18
1*19
1*20
1*21
1*22
1*23
1*24
1*25
1*26
1*27
1*28
1*29
1*30
1*31
1*32
0*33
1*34
1*35
0*36
1*37
1*38
1*39
#125
1*0
0*1
1*2
1*3
1*4
1*5
1*6
1*7
1*8
1*9
1*10
1*11
1*12
1*13
1*14
1*15
1*16
0*17
1*18
1*19
1*20
1*21
1*22
1*23
1*24
1*25
1*26
1*27
1*28
1*29
1*30
1*31
1*32
0*33
1*34
1*35
0*36
1*37
1*38
1*39
#130
0*0
0*1
1*2
1*3
1*4
1*5
1*6
1*7
1*8
1*9
1*10
1*11
1*12
1*13
1*14
1*15
1*16
0*17
1*18
1*19
1*20
1*21
1*22
1*23
1*24
1*25
1*26
1*27
1*28
1*29
1*30
1*31
1*32
0*33
1*34
1*35
0*36
1*37
1*38
1*39
#135
1*0
0*1
1*2
1*3
1*4
1*5
1*6
1*7
1*8
1*9
1*10
1*11
1*12
1*13
1*14
1*15
1*16
1*17
0*18
0*19
1*20
1*21
1*22
1*23
1*24
1*25
1*26
1*27
1*28
1*29
1*30
1*31
1*32
1*33
0*34
0*35
0*36
1*37
1*38
1*39
#140
0*0
0*1
1*2
1*3
1*4
1*5
1*6
1*7
1*8
1*9
1*10
1*11
1*12
1*13
1*14
1*15
1*16
1*17
0*18
0*19
1*20
1*21
1*22
1*23
1*24
1*25
1*26
1*27
1*28
1*29
1*30
1*31
1*32
1*33
0*34
0*35
0*36
1*37
1*38
1*39
#145
1*0
0*1
1*2
1*3
1*4
1*5
1*6
1*7
1*8
1*9
1*10
1*11
1*12
1*13
1*14
1*15
1*16
1*17
0*18
0*19
1*20
1*21
1*22
1*23
1*24
1*25
1*26
1*27
1*28
1*29
1*30
1*31
1*32
1*33
0*34
0*35
0*36
1*37
1*38
1*39
#150
0*0
0*1
1*2
1*3
1*4
1*5
1*6
1*7
1*8
1*9
1*10
1*11
1*12
1*13
1*14
1*15
1*16
1*17
0*18
0*19
1*20
1*21
1*22
1*23
1*24
1*25
1*26
1*27
1*28
1*29
1*30
1*31
1*32
1*33
0*34
0*35
0*36
1*37
1*38
1*39
#155
1*0
0*1
1*2
1*3
1*4
1*5
1*6
1*7
1*8
1*9
1*10
1*11
1*12
1*13
1*14
1*15
1*16
1*17
0*18
0*19
1*20
1*21
1*22
1*23
1*24
1*25
1*26
1*27
1*28
1*29
1*30
1*31
1*32
1*33
0*34
0*35
0*36
1*37
1*38
1*39
#160
0*0
0*1
1*2
1*3
1*4
1*5
1*6
1*7
1*8
1*9
1*10
1*11
1*12
1*13
1*14
1*15
1*16
1*17
0*18
0*19
1*20
1*21
1*22
1*23
1*24
1*25
1*26
1*27
1*28
1*29
1*30
1*31
1*32
1*33
0*34
0*35
0*36
1*37
1*38
1*39
#165
1*0
0*1
1*2
1*3
1*4
1*5
1*6
1*7
1*8
1*9
1*10
1*11
1*12
1*13
1*14
1*15
1*16
1*17
0*18
0*19
1*20
1*21
1*22
1*23
1*24
1*25
1*26
1*27
1*28
1*29
1*30
1*31
1*32
1*33
0*34
0*35
0*36
1*37
1*38
1*39
#170
0*0
0*1
1*2
1*3
1*4
1*5
1*6
1*7
1*8
1*9
1*10
1*11
1*12
1*13
1*14
1*15
1*16
1*17
0*18
0*19
1*20
1*21
1*22
1*23
1*24
1*25
1*26
1*27
1*28
1*29
1*30
1*31
1*32
1*33
0*34
0*35
0*36
1*37
1*38
1*39
#175
1*0
0*1
1*2
1*3
1*4
1*5
1*6
1*7
1*8
1*9
1*10
1*11
1*12
1*13
1*14
1*15
1*16
1*17
0*18
1*19
1*20
1*21
1*22
1*23
1*24
1*25
1*26
1*27
1*28
1*29
1*30
1*31
1*32
1*33
0*34
1*35
0*36
1*37
1*38
1*39
#180
0*0
0*1
1*2
1*3
1*4
1*5
1*6
1*7
1*8
1*9
1*10
1*11
1*12
1*13
1*14
1*15
1*16
1*17
0*18
1*19
1*20
1*21
1*22
1*23
1*24
1*25
1*26
1*27
1*28
1*29
1*30
1*31
1*32
1*33
0*34
1*35
0*36
1*37
1*38
1*39
#185
1*0
0*1
1*2
1*3
1*4
1*5
1*6
1*7
1*8
1*9
1*10
1*11
1*12
1*13
1*14
1*15
1*16
1*17
0*18
1*19
1*20
1*21
1*22
1*23
1*24
1*25
1*26
1*27
1*28
1*29
1*30
1*31
1*32
1*33
0*34
1*35
0*36
1*37
1*38
1*39
#190
0*0
0*1
1*2
1*3
1*4
1*5
1*6
1*7
1*8
1*9
1*10
1*11
1*12
1*13
1*14
1*15
1*16
1*17
0*18
1*19
1*20
1*21
1*22
1*23
1*24
1*25
1*26
1*27
1*28
1*29
1*30
1*31
1*32
1*33
0*34
1*35
0*36
1*37
1*38
1*39
#195
1*0
0*1
1*2
1*3
1*4
1*5
1*6
1*7
1*8
1*9
1*10
1*11
1*12
1*13
1*14
1*15
1*16
1*17
0*18
1*19
1*20
1*21
1*22
1*23
1*24
1*25
1*26
1*27
1*28
1*29
1*30
1*31
1*32
1*33
0*34
1*35
0*36
1*37
1*38
1*39
#200
0*0
0*1
1*2
1*3
1*4
1*5
1*6
1*7
1*8
1*9
1*10
1*11
1*12
1*13
1*14
1*15
1*16
1*17
0*18
1*19
1*20
1*21
1*22
1*23
1*24
1*25
1*26
1*27
1*28
1*29
1*30
1*31
1*32
1*33
0*34
1*35
0*36
1*37
1*38
1*39
#205
1*0
0*1
1*2
1*3
1*4
1*5
1*6
1*7
1*8
1*9
1*10
1*11
1*12
1*13
1*14
1*15
1*16
1*17
0*18
1*19
1*20
1*21
1*22
1*23
1*24
1*25
1*26
1*27
1*28
1*29
1*30
1*31
1*32
1*33
0*34
1*35
0*36
1*37
1*38
1*39
#210
0*0
0*1
1*2
1*3
1*4
1*5
1*6
1*7
1*8
1*9
1*10
1*11
1*12
1*13
1*14
1*15
1*16
1*17
0*18
1*19
1*20
1*21
1*22
1*23
1*24
1*25
1*26
1*27
1*28
1*29
1*30
1*31
1*32
1*33
0*34
1*35
0*36
1*37
1*38
1*39
#215
1*0
0*1
1*2
1*3
1*4
1*5
1*6
1*7
1*8
1*9
1*10
1*11
1*12
1*13
1*14
1*15
1*16
1*17
1*18
0*19
1*20
1*21
1*22
1*23
1*24
1*25
1*26
1*27
1*28
1*29
1*30
1*31
1*32
1*33
1*34
0*35
0*36
1*37
1*38
1*39
#220
0*0
0*1
1*2
1*3
1*4
1*5
1*6
1*7
1*8
1*9
1*10
1*11
1*12
1*13
1*14
1*15
1*16
1*17
1*18
0*19
1*20
1*21
1*22
1*23
1*24
1*25
1*26
1*27
1*28
1*29
1*30
1*31
1*32
1*33
1*34
0*35
0*36
1*37
1*38
1*39
#225
1*0
0*1
1*2
1*3
1*4
1*5
1*6
1*7
1*8
1*9
1*10
1*11
1*12
1*13
1*14
1*15
1*16
1*17
1*18
0*19
1*20
1*21
1*22
1*23
1*24
1*25
1*26
1*27
1*28
1*29
1*30
1*31
1*32
1*33
1*34
0*35
0*36
1*37
1*38
1*39
#230
0*0
0*1
1*2
1*3
1*4
1*5
1*6
1*7
1*8
1*9
1*10
1*11
1*12
1*13
1*14
1*15
1*16
1*17
1*18
0*19
1*20
1*21
1*22
1*23
1*24
1*25
1*26
1*27
1*28
1*29
1*30
1*31
1*32
1*33
1*34
0*35
0*36
1*37
1*38
1*39
#235
1*0
0*1
1*2
1*3
1*4
1*5
1*6
1*7
1*8
1*9
1*10
1*11
1*12
1*13
1*14
1*15
1*16
1*17
1*18
0*19
1*20
1*21
1*22
1*23
1*24
1*25
1*26
1*27
1*28
1*29
1*30
1*31
1*32
1*33
1*34
0*35
0*36
1*37
1*38
1*39
#240
0*0
0*1
1*2
1*3
1*4
1*5
1*6
1*7
1*8
1*9
1*10
1*11
1*12
1*13
1*14
1*15
1*16
1*17
1*18
0*19
1*20
1*21
1*22
1*23
1*24
1*25
1*26
1*27
1*28
1*29
1*30
1*31
1*32
1*33
1*34
0*35
0*36
1*37
1*38
1*39
#245
1*0
0*1
1*2
1*3
1*4
1*5
1*6
1*7
1*8
1*9
1*10
1*11
1*12
1*13
1*14
1*15
1*16
1*17
1*18
0*19
1*20
1*21
1*22
1*23
1*24
1*25
1*26
1*27
1*28
1*29
1*30
1*31
1*32
1*33
1*34
0*35
0*36
1*37
1*38
1*39
#250
0*0
0*1
1*2
1*3
1*4
1*5
1*6
1*7
1*8
1*9
1*10
1*11
1*12
1*13
1*14
1*15
1*16
1*17
1*18
0*19
1*20
1*21
1*22
1*23
1*24
1*25
1*26
1*27
1*28
1*29
1*30
1*31
1*32
1*33
1*34
0*35
0*36
1*37
1*38
1*39
#255
1*0
0*1
1*2
1*3
1*4
1*5
1*6
1*7
1*8
1*9
1*10
1*11
1*12
1*13
1*14
1*15
1*16
1*17
1*18
1*19
1*20
1*21
1*22
1*23
1*24
1*25
1*26
1*27
1*28
1*29
1*30
1*31
1*32
1*33
1*34
1*35
0*36
1*37
1*38
1*39
#260
0*0
0*1
1*2
1*3
1*4
1*5
1*6
1*7
1*8
1*9
1*10
1*11
1*12
1*13
1*14
1*15
1*16
1*17
1*18
1*19
1*20
1*21
1*22
1*23
1*24
1*25
1*26
1*27
1*28
1*29
1*30
1*31
1*32
1*33
1*34
1*35
0*36
1*37
1*38
1*39
#265
1*0
0*1
1*2
1*3
1*4
1*5
1*6
1*7
1*8
1*9
1*10
1*11
1*12
1*13
1*14
1*15
1*16
1*17
1*18
1*19
1*20
1*21
1*22
1*23
1*24
1*25
1*26
1*27
1*28
1*29
1*30
1*31
1*32
1*33
1*34
1*35
0*36
1*37
1*38
1*39
#270
0*0
0*1
1*2
1*3
1*4
1*5
1*6
1*7
1*8
1*9
1*10
1*11
1*12
1*13
1*14
1*15
1*16
1*17
1*18
1*19
1*20
1*21
1*22
1*23
1*24
1*25
1*26
1*27
1*28
1*29
1*30
1*31
1*32
1*33
1*34
1*35
0*36
1*37
1*38
1*39
#275
1*0
0*1
1*2
1*3
1*4
1*5
1*6
1*7
1*8
1*9
1*10
1*11
1*12
1*13
1*14
1*15
1*16
1*17
1*18
1*19
1*20
1*21
1*22
1*23
1*24
1*25
1*26
1*27
1*28
1*29
1*30
1*31
1*32
1*33
1*34
1*35
0*36
1*37
1*38
1*39
#280
0*0
0*1
1*2
1*3
1*4
1*5
1*6
1*7
1*8
1*9
1*10
1*11
1*12
1*13
1*14
1*15
1*16
1*17
1*18
1*19
1*20
1*21
1*22
1*23
1*24
1*25
1*26
1*27
1*28
1*29
1*30
1*31
1*32
1*33
1*34
1*35
0*36
1*37
1*38
1*39
#285
1*0
0*1
1*2
1*3
1*4
1*5
1*6
1*7
1*8
1*9
1*10
1*11
1*12
1*13
1*14
1*15
1*16
1*17
1*18
1*19
1*20
1*21
1*22
1*23
1*24
1*25
1*26
1*27
1*28
1*29
1*30
1*31
1*32
1*33
1*34
1*35
0*36
1*37
1*38
1*39
#290
0*0
0*1
1*2
1*3
1*4
1*5
1*6
1*7
1*8
1*9
1*10
1*11
1*12
1*13
1*14
1*15
1*16
1*17
1*18
1*19
1*20
1*21
1*22
1*23
1*24
1*25
1*26
1*27
1*28
1*29
1*30
1*31
1*32
1*33
1*34
1*35
0*36
1*37
1*38
1*39
#295
1*0
1*1
1*2
1*3
1*4
1*5
1*6
1*7
1*8
1*9
1*10
1*11
1*12
1*13
1*14
1*15
1*16
1*17
1*18
1*19
1*20
1*21
1*22
1*23
1*24
1*25
1*26
1*27
1*28
1*29
1*30
1*31
1*32
1*33
1*34
1*35
0*36
1*37
1*38
1*39
#300
0*0
1*1
1*2
1*3
1*4
1*5
1*6
1*7
1*8
1*9
1*10
1*11
1*12
1*13
1*14
1*15
1*16
1*17
1*18
1*19
1*20
1*21
1*22
1*23
1*24
1*25
1*26
1*27
1*28
1*29
1*30
1*31
1*32
1*33
1*34
1*35
0*36
1*37
1*38
1*39
#305
1*0
1*1
1*2
1*3
1*4
1*5
1*6
1*7
1*8
1*9
1*10
1*11
1*12
1*13
1*14
1*15
1*16
1*17
1*18
1*19
1*20
1*21
1*22
1*23
1*24
1*25
1*26
1*27
1*28
1*29
1*30
1*31
1*32
1*33
1*34
1*35
0*36
1*37
1*38
1*39
#310
0*0
1*1
1*2
1*3
1*4
1*5
1*6
1*7
1*8
1*9
1*10
1*11
1*12
1*13
1*14
1*15
1*16
1*17
1*18
1*19
1*20
1*21
1*22
1*23
1*24
1*25
1*26
1*27
1*28
1*29
1*30
1*31
1*32
1*33
1*34
1*35
0*36
1*37
1*38
1*39
#315
1*0
1*1
0*2
0*3
0*4
0*5
0*6
0*7
0*8
0*9
0*10
0*11
0*12
0*13
0*14
0*15
0*16
0*17
0*18
0*19
0*20
0*21
0*22
0*23
0*24
0*25
0*26
0*27
0*28
0*29
0*30
0*31
0*32
0*33
0*34
0*35
0*36
0*37
1*38
1*39
#320
0*0
1*1
0*2
0*3
0*4
0*5
0*6
0*7
0*8
0*9
0*10
0*11
0*12
0*13
0*14
0*15
0*16
0*17
0*18
0*19
0*20
0*21
0*22
0*23
0*24
0*25
0*26
0*27
0*28
0*29
0*30
0*31
0*32
0*33
0*34
0*35
0*36
0*37
1*38
1*39
#325
$comment Sample 0 (Trigger) $end
1*0
1*1
0*2
0*3
0*4
0*5
0*6
0*7
0*8
0*9
0*10
0*11
0*12
0*13
0*14
0*15
0*16
0*17
0*18
0*19
0*20
0*21
0*22
0*23
0*24
0*25
0*26
0*27
0*28
0*29
0*30
0*31
0*32
0*33
0*34
0*35
0*36
0*37
1*38
1*39
#330
0*0
1*1
0*2
0*3
0*4
0*5
0*6
0*7
0*8
0*9
0*10
0*11
0*12
0*13
0*14
0*15
0*16
0*17
0*18
0*19
0*20
0*21
0*22
0*23
0*24
0*25
0*26
0*27
0*28
0*29
0*30
0*31
0*32
0*33
0*34
0*35
0*36
0*37
1*38
1*39
#335
1*0
1*1
0*2
0*3
0*4
0*5
0*6
0*7
0*8
0*9
0*10
0*11
0*12
0*13
0*14
0*15
0*16
0*17
0*18
0*19
0*20
0*21
0*22
0*23
0*24
0*25
0*26
0*27
0*28
0*29
0*30
0*31
0*32
0*33
0*34
0*35
0*36
1*37
1*38
1*39
#340
0*0
1*1
0*2
0*3
0*4
0*5
0*6
0*7
0*8
0*9
0*10
0*11
0*12
0*13
0*14
0*15
0*16
0*17
0*18
0*19
0*20
0*21
0*22
0*23
0*24
0*25
0*26
0*27
0*28
0*29
0*30
0*31
0*32
0*33
0*34
0*35
0*36
1*37
1*38
1*39
#345
1*0
1*1
0*2
0*3
0*4
0*5
0*6
0*7
0*8
0*9
0*10
0*11
0*12
0*13
0*14
0*15
0*16
0*17
0*18
0*19
0*20
0*21
0*22
0*23
0*24
0*25
0*26
0*27
0*28
0*29
0*30
0*31
0*32
0*33
0*34
0*35
0*36
1*37
1*38
1*39
#350
0*0
1*1
0*2
0*3
0*4
0*5
0*6
0*7
0*8
0*9
0*10
0*11
0*12
0*13
0*14
0*15
0*16
0*17
0*18
0*19
0*20
0*21
0*22
0*23
0*24
0*25
0*26
0*27
0*28
0*29
0*30
0*31
0*32
0*33
0*34
0*35
0*36
1*37
1*38
1*39
#355
1*0
1*1
0*2
0*3
0*4
0*5
0*6
0*7
0*8
0*9
0*10
0*11
0*12
0*13
0*14
0*15
0*16
0*17
0*18
1*19
0*20
0*21
0*22
0*23
0*24
0*25
0*26
0*27
0*28
0*29
0*30
0*31
0*32
0*33
0*34
1*35
0*36
0*37
1*38
1*39
#360
0*0
1*1
0*2
0*3
0*4
0*5
0*6
0*7
0*8
0*9
0*10
0*11
0*12
0*13
0*14
0*15
0*16
0*17
0*18
1*19
0*20
0*21
0*22
0*23
0*24
0*25
0*26
0*27
0*28
0*29
0*30
0*31
0*32
0*33
0*34
1*35
0*36
0*37
1*38
1*39
#365
1*0
1*1
0*2
0*3
0*4
0*5
0*6
0*7
0*8
0*9
0*10
0*11
0*12
0*13
0*14
0*15
0*16
0*17
0*18
1*19
0*20
0*21
0*22
0*23
0*24
0*25
0*26
0*27
0*28
0*29
0*30
0*31
0*32
0*33
0*34
1*35
0*36
0*37
1*38
1*39
#370
0*0
1*1
0*2
0*3
0*4
0*5
0*6
0*7
0*8
0*9
0*10
0*11
0*12
0*13
0*14
0*15
0*16
0*17
0*18
1*19
0*20
0*21
0*22
0*23
0*24
0*25
0*26
0*27
0*28
0*29
0*30
0*31
0*32
0*33
0*34
1*35
0*36
0*37
1*38
1*39
#375
1*0
1*1
0*2
0*3
0*4
0*5
0*6
0*7
0*8
0*9
0*10
0*11
0*12
0*13
0*14
0*15
0*16
0*17
0*18
1*19
0*20
0*21
0*22
0*23
0*24
0*25
0*26
0*27
0*28
0*29
0*30
0*31
0*32
0*33
0*34
1*35
0*36
1*37
1*38
1*39
#380
0*0
1*1
0*2
0*3
0*4
0*5
0*6
0*7
0*8
0*9
0*10
0*11
0*12
0*13
0*14
0*15
0*16
0*17
0*18
1*19
0*20
0*21
0*22
0*23
0*24
0*25
0*26
0*27
0*28
0*29
0*30
0*31
0*32
0*33
0*34
1*35
0*36
1*37
1*38
1*39
#385
1*0
1*1
0*2
0*3
0*4
0*5
0*6
0*7
0*8
0*9
0*10
0*11
0*12
0*13
0*14
0*15
0*16
0*17
0*18
1*19
0*20
0*21
0*22
0*23
0*24
0*25
0*26
0*27
0*28
0*29
0*30
0*31
0*32
0*33
0*34
1*35
0*36
1*37
1*38
1*39
#390
0*0
1*1
0*2
0*3
0*4
0*5
0*6
0*7
0*8
0*9
0*10
0*11
0*12
0*13
0*14
0*15
0*16
0*17
0*18
1*19
0*20
0*21
0*22
0*23
0*24
0*25
0*26
0*27
0*28
0*29
0*30
0*31
0*32
0*33
0*34
1*35
0*36
1*37
1*38
1*39
#395
1*0
1*1
0*2
0*3
0*4
0*5
0*6
0*7
0*8
0*9
0*10
0*11
0*12
0*13
0*14
0*15
0*16
0*17
1*18
0*19
0*20
0*21
0*22
0*23
0*24
0*25
0*26
0*27
0*28
0*29
0*30
0*31
0*32
0*33
1*34
0*35
0*36
0*37
1*38
1*39
#400
0*0
1*1
0*2
0*3
0*4
0*5
0*6
0*7
0*8
0*9
0*10
0*11
0*12
0*13
0*14
0*15
0*16
0*17
1*18
0*19
0*20
0*21
0*22
0*23
0*24
0*25
0*26
0*27
0*28
0*29
0*30
0*31
0*32
0*33
1*34
0*35
0*36
0*37
1*38
1*39
#405
1*0
1*1
0*2
0*3
0*4
0*5
0*6
0*7
0*8
0*9
0*10
0*11
0*12
0*13
0*14
0*15
0*16
0*17
1*18
0*19
0*20
0*21
0*22
0*23
0*24
0*25
0*26
0*27
0*28
0*29
0*30
0*31
0*32
0*33
1*34
0*35
0*36
0*37
1*38
1*39
#410
0*0
1*1
0*2
0*3
0*4
0*5
0*6
0*7
0*8
0*9
0*10
0*11
0*12
0*13
0*14
0*15
0*16
0*17
1*18
0*19
0*20
0*21
0*22
0*23
0*24
0*25
0*26
0*27
0*28
0*29
0*30
0*31
0*32
0*33
1*34
0*35
0*36
0*37
1*38
1*39
#415
1*0
1*1
0*2
0*3
0*4
0*5
0*6
0*7
0*8
0*9
0*10
0*11
0*12
0*13
0*14
0*15
0*16
0*17
1*18
0*19
0*20
0*21
0*22
0*23
0*24
0*25
0*26
0*27
0*28
0*29
0*30
0*31
0*32
0*33
1*34
0*35
0*36
1*37
1*38
1*39
